Exercise 04 - Nobel laureates
…
nobel <- read_csv("data/nobel.csv")

Exercise 1

Exercise 2

nobel_living <- nobel %>% 
  filter(!is.na(country),
         gender != "org",
         is.na(died_date)
         )
nobel_living

## # A tibble: 228 x 26
##       id firstname  surname  year category affiliation  city  country born_date 
##    <dbl> <chr>      <chr>   <dbl> <chr>    <chr>        <chr> <chr>   <date>    
##  1    68 Chen Ning  Yang     1957 Physics  Institute f Prin USA     1922-09-22
##  2    69 Tsung-Dao  Lee      1957 Physics  Columbia Un New  USA     1926-11-24
##  3    95 Leon N.    Cooper   1972 Physics  Brown Unive Prov USA     1930-02-28
##  4    97 Leo        Esaki    1973 Physics  IBM Thomas  York USA     1925-03-12
##  5    98 Ivar       Giaever  1973 Physics  General Ele Sche USA     1929-04-05
##  6    99 Brian D.   Joseph  1973 Physics  University  Camb United 1940-01-04
##  7   101 Antony     Hewish   1974 Physics  University  Camb United 1924-05-11
##  8   103 Ben R.     Mottel  1975 Physics  Nordita      Cope Denmark 1926-07-09
##  9   106 Samuel C. Ting     1976 Physics  Massachuset Camb USA     1936-01-27
## 10   107 Philip W.  Anders  1977 Physics  Bell Teleph Murr USA     1923-12-13
## #  with 218 more rows, and 17 more variables: died_date <date>, gender <chr>,
## #   born_city <chr>, born_country <chr>, born_country_code <chr>,
## #   died_city <chr>, died_country <chr>, died_country_code <chr>,
## #   overall_motivation <chr>, share <dbl>, motivation <chr>,
## #   born_country_original <chr>, born_city_original <chr>,
## #   died_country_original <chr>, died_city_original <chr>, city_original <chr>,
## #   country_original <chr>
…
Exercise 4

dont add code here; instead, go back and edit the pipeline in Exercise 2

nobel_living <- nobel %>% 
  filter(!is.na(country),
         gender != "org",
         is.na(died_date)
         ) %>% 
  mutate(
    born_country_us = if_else(born_country == "USA", "USA", "Other")
  )
nobel_living

## # A tibble: 228 x 27
##       id firstname  surname  year category affiliation  city  country born_date 
##    <dbl> <chr>      <chr>   <dbl> <chr>    <chr>        <chr> <chr>   <date>    
##  1    68 Chen Ning  Yang     1957 Physics  Institute f Prin USA     1922-09-22
##  2    69 Tsung-Dao  Lee      1957 Physics  Columbia Un New  USA     1926-11-24
##  3    95 Leon N.    Cooper   1972 Physics  Brown Unive Prov USA     1930-02-28
##  4    97 Leo        Esaki    1973 Physics  IBM Thomas  York USA     1925-03-12
##  5    98 Ivar       Giaever  1973 Physics  General Ele Sche USA     1929-04-05
##  6    99 Brian D.   Joseph  1973 Physics  University  Camb United 1940-01-04
##  7   101 Antony     Hewish   1974 Physics  University  Camb United 1924-05-11
##  8   103 Ben R.     Mottel  1975 Physics  Nordita      Cope Denmark 1926-07-09
##  9   106 Samuel C. Ting     1976 Physics  Massachuset Camb USA     1936-01-27
## 10   107 Philip W.  Anders  1977 Physics  Bell Teleph Murr USA     1923-12-13
## #  with 218 more rows, and 18 more variables: died_date <date>, gender <chr>,
## #   born_city <chr>, born_country <chr>, born_country_code <chr>,
## #   died_city <chr>, died_country <chr>, died_country_code <chr>,
## #   overall_motivation <chr>, share <dbl>, motivation <chr>,
## #   born_country_original <chr>, born_city_original <chr>,
## #   died_country_original <chr>, died_city_original <chr>, city_original <chr>,
## #   country_original <chr>, born_country_us <chr>
…
