Homework 1: Warmup
…
Load Packages

library(tidyverse)
library(ggplot2)

Read Data

daily_rides <- read_csv("data/day_simple.csv")

Exercise 1

daily_rides

## # A tibble: 731 x 4
##    date       day_of_week workingday total_rides
##    <date>           <dbl> <chr>            <dbl>
##  1 2011-01-01           6 weekend            654
##  2 2011-01-02           0 weekend            670
##  3 2011-01-03           1 workday           1229
##  4 2011-01-04           2 workday           1454
##  5 2011-01-05           3 workday           1518
##  6 2011-01-06           4 workday           1518
##  7 2011-01-07           5 workday           1362
##  8 2011-01-08           6 weekend            891
##  9 2011-01-09           0 weekend            768
## 10 2011-01-10           1 workday           1280
## #  with 721 more rows
…
