National Trends in Homelessness
…
#Veterans data missing in PIT-Estimates-by-CoC from 2007-2010, so use PIT-Estimates-by-state dataset instead durng wrangling step.
data_2010_replaced<- read_csv("~/portfolio-dkwik/datavis/data_2010_replaced.csv")
data_2009_replaced<- read_csv("~/portfolio-dkwik/datavis/data_2009_replaced.csv")
data_2008_replaced<- read_csv("~/portfolio-dkwik/datavis/data_2008_replaced.csv")
data_2007_replaced<- read_csv("~/portfolio-dkwik/datavis/data_2007_replaced.csv")

#show example of dataframe
data_2020

## # A tibble: 396 x 542
##    `CoC Number` `CoC Name`    `CoC Category`  `Overall Homele `Overall Homeles
##    <chr>        <chr>         <chr>                      <dbl>             <dbl>
##  1 AK-500       Anchorage CoC Other Largely              1058               150
##  2 AK-501       Alaska Balan Largely Rural               891               176
##  3 AL-500       Birmingham/J Largely Suburb              848                92
##  4 AL-501       Mobile City  Other Largely               631               107
##  5 AL-502       Florence/Nor Largely Rural               215                61
##  6 AL-503       Huntsville/N Other Largely               561                99
##  7 AL-504       Montgomery C Other Largely               351                43
##  8 AL-505       Gadsden/Nort Largely Rural               280                23
##  9 AL-506       Tuscaloosa C Other Largely                67                 6
## 10 AL-507       Alabama Bala Largely Rural               398                97
## #  with 386 more rows, and 537 more variables:
## #   Overall Homeless - Age 18 to 24, 2020 <dbl>,
## #   Overall Homeless - Over 24, 2020 <dbl>,
## #   Overall Homeless - Female, 2020 <dbl>, Overall Homeless - Male, 2020 <dbl>,
## #   Overall Homeless - Transgender, 2020 <dbl>,
## #   Overall Homeless - Gender Non-Conforming, 2020 <dbl>,
## #   Overall Homeless - Non-Hispanic/Non-Latino, 2020 <dbl>,
## #   Overall Homeless - Hispanic/Latino, 2020 <dbl>,
## #   Overall Homeless - White, 2020 <dbl>,
…
